Microeconometrics with R - 4 Interpretation of the Coefficients
…
dummy variables (e.g., 0 for a male and 1 for a female),

categorical variables (e.g., marital status, with modalities married, single, divorced, widower),

introduced in the regression after a transformation, for example, by taking the logarithm or the square root (this can be also true for the response),

introduced as a polynomial, for example, not only \(x\) is introduced, but also its square,

jointly introduced with an interaction, i.e., not only \(x_1\) and \(x_2\) are introduced, but also their product.

In all these cases, \(\beta\) is no longer the derivative of \(y\) with respect to \(x\) and special care is required in the interpretation of the estimated coefficients. Throughout this chapter, we’ll use the data set of Costanigro, Mittelhammer, and McCluskey (2009) (called wine) who estimate a hedonic price function for wines. 

wine %>% print(n = 3)

# A tibble: 9,600 × 11
  price cases score   age region    variety vintage reserve vineyard
  <dbl> <int> <int> <int> <fct>     <fct>   <fct>   <fct>   <fct>   
1  27.1   300    86     3 sonoma    pinot   95      no      no      
2  32.1   500    90     3 mendocino cabern… 97      yes     no      
3  25.5  1635    84     2 mendocino pinot   other   no      no      
# ℹ 9,597 more rows
# ℹ 2 more variables: estate <fct>, class <fct>
…
The initial model, with \(y\) and \(x\) is: \(y_n = \alpha + \beta_x x_n + \epsilon_n\). \(y\) being measured in US$ of 2000, so are \(\alpha\), \(\beta x_n\) and \(\epsilon_n\). The intercept indicates the expected value of a bottle of wine when the production is 0, which of course makes no sense. However, we can consider the intercept as the expected value of a bottle for a wine with a very low production. We get here: 31.7. \(\beta_x x\) is measured in US$ of 2000 and \(x\) in cases, \(\beta_x\) is measured in US$ of 2000 per case. Therefore, when the production increases by one case, the price of a bottle decreases by -3.3^{-4} US$ of 2000, i.e., 0.03 cent. The residuals and the fitted values are also measured in US$ of 2000. To see the response, the fitted values and the residuals, we can create a tibble, using the resid and the fitted functions: 

tibble(y = wine2$y, heps = resid(nn_yx), hy = fitted(nn_yx))

or more simply using the broom::augment function, which adds to the model frame of a fitted object different columns, including the residuals (.resid) and the fitted values (.fitted): 

library(broom)
nn_yx %>% augment

# A tibble: 9,600 × 8
      y     x .fitted .resid     .hat .sigma      .cooksd .std.resid
  <dbl> <int>   <dbl>  <dbl>    <dbl>  <dbl>        <dbl>      <dbl>
1  27.1   300    31.6 -4.49  0.000120   19.5 0.00000319      -0.231 
2  32.1   500    31.5  0.554 0.000118   19.5 0.0000000479     0.0285
3  25.5  1635    31.2 -5.67  0.000112   19.5 0.00000475      -0.291 
4  27.0   800    31.4 -4.41  0.000116   19.5 0.00000299      -0.226 
5  26.4  1150    31.3 -4.93  0.000114   19.5 0.00000368      -0.253 
# ℹ 9,595 more rows
…
Covariate in logarithm

We now consider that the covariate is the logarithm of the production: \(y_n = \alpha + \beta_x \ln x_n + \epsilon_n\). The response is still measured in US$ of 2000, and therefore so are \(\alpha\), \(\beta_x \ln x_n\), \(\epsilon_n\), \(\hat{y}_n\) and \(\hat{\epsilon}_n\). 

nl_yx <- lm(y ~ log(x), wine2)
coef(nl_yx)
## (Intercept)      log(x) 
##      57.008      -3.708

The intercept is now the expected value of the price of a bottle for \(x=1\) (and not 0 as previously) and is therefore not particularly meaningful. \(\beta_x\) is now the derivative of \(y\) with \(\ln x\), which is \(\beta_x = \frac{dy}{d\ln x}= \frac{dy}{dx /x}\). Therefore, \(\beta_x\) is the ratio of an absolute variation of \(y\) and a relative variation of \(x\). For \(dx/x=1\), which means that the production is multiplied by 2, \(dy = -3.71\), which means that the price of the bottle decreases by -3.71 US$ of 2000. 

nl_yx %>% augment

# A tibble: 9,600 × 8
      y `log(x)` .fitted .resid     .hat .sigma   .cooksd .std.resid
  <dbl>    <dbl>   <dbl>  <dbl>    <dbl>  <dbl>     <dbl>      <dbl>
1  27.1     5.70    35.9  -8.74 0.000219   19.1   2.30e-5    -0.458 
2  32.1     6.21    34.0  -1.87 0.000156   19.1   7.47e-7    -0.0979
3  25.5     7.40    29.6  -4.07 0.000105   19.1   2.40e-6    -0.214 
4  27.0     6.68    32.2  -5.18 0.000120   19.1   4.43e-6    -0.272 
5  26.4     7.05    30.9  -4.48 0.000106   19.1   2.93e-6    -0.235 
# ℹ 9,595 more rows
…
As \(\mu_u > \mu_r\), mean log-income increases during the process of development. To get the variance of log-income for the whole economy, which is a measure of inequality, we apply the variance decomposition formula  \[
\sigma^2 = (1 - x) \sigma_r ^ 2 + x \sigma_u ^ 2 + (1-x)(\mu_r - \mu) ^ 2 + x(\mu_u - \mu) ^ 2
\tag{4.2}\]

Replacing \(\mu\) by its expression in Equation 4.1 and denoting \(\Delta_\mu = \mu_u - \mu_r\) and \(\Delta_{\sigma^2} = \sigma_u ^ 2 - \sigma_r ^ 2\), Equation 4.2 can be rewritten as:

\[
\sigma^2 = \sigma_r ^ 2 +  (\Delta_{\sigma^2} + \Delta_\mu^2) x - \Delta_\mu ^ 2 x ^ 2
\] Therefore, the overall variance of log-income is the equation of a parabola with a positive first order term and a negative second order term. Graphically, the relation between the share of the modern sector and the overall variance of log-income is inverted U-shaped. From Equation 4.1, the mean of log income is positively correlated with the share of the urban sector. The relation between the variance and the mean of log-income is therefore also inverted U-shaped, and is called in the economic literature the Kuznets curve. We use the kuznets data set, which is used by Sudhir and Kanbur (1993): 

kuznets

# A tibble: 60 × 5
  country  group        gnp  gini varlog
  <chr>    <fct>      <dbl> <dbl>  <dbl>
1 Chad     developing  79.5 0.369  0.368
2 Malawi   developing  80   0.470  0.576
3 Dahomey  developing  91.3 0.468  0.594
4 Pakistan developing  93.7 0.386  0.468
5 Tanzania developing 104.  0.503  0.661
# ℹ 55 more rows
…
# A tibble: 3 × 2
       me      sd
    <dbl>   <dbl>
1 0.00335 0.00201
2 0.00332 0.00199
3 0.00269 0.00164

The marginaleffects package provides the slopes function to compute the marginal effects and their standard error for all the observations in the sample. It has a variables argument that is a character vector containing the variables for which the marginal effect has to be computed. It is unnecessary here, as we have only one covariate:1 

library(marginaleffects)
kc_slps <- kc %>% slopes
kc_slps %>% as_tibble

# A tibble: 60 × 14
  rowid term  estimate std.error statistic p.value s.value  conf.low
  <int> <chr>    <dbl>     <dbl>     <dbl>   <dbl>   <dbl>     <dbl>
1     1 gnp    0.00335   0.00201      1.67  0.0949    3.40 -0.000582
2     2 gnp    0.00332   0.00199      1.67  0.0951    3.39 -0.000579
3     3 gnp    0.00269   0.00164      1.64  0.100     3.32 -0.000519
4     4 gnp    0.00258   0.00158      1.64  0.102     3.30 -0.000509
5     5 gnp    0.00218   0.00135      1.61  0.107     3.23 -0.000468
# ℹ 55 more rows
# ℹ 6 more variables: conf.high <dbl>, predicted_lo <dbl>,
#   predicted_hi <dbl>, predicted <dbl>, varlog <dbl>, gnp <dbl>

We can check that we get “almost” the same results as previously. The tiny difference is due to the fact that we used analytical derivatives, as slopes use numerical derivatives. We have seen previously that the same regression could have been performed by computing before the estimation the log of the per capita GNP: 

kc2 <- lm(varlog ~ poly(lgnp, 2, raw = TRUE), kuznets)

although the coefficients are the same as previously, using slopes with this model returns completely different results: 

kc2 %>% slopes %>% as_tibble

# A tibble: 60 × 14
  rowid term  estimate std.error statistic p.value s.value conf.low
  <int> <chr>    <dbl>     <dbl>     <dbl>   <dbl>   <dbl>    <dbl>
1     1 lgnp     0.267     0.160      1.67  0.0950    3.40  -0.0463
2     2 lgnp     0.266     0.159      1.67  0.0952    3.39  -0.0464
3     3 lgnp     0.246     0.150      1.64  0.100     3.32  -0.0474
4     4 lgnp     0.242     0.148      1.64  0.101     3.30  -0.0475
5     5 lgnp     0.226     0.140      1.61  0.107     3.23  -0.0486
# ℹ 55 more rows
# ℹ 6 more variables: conf.high <dbl>, predicted_lo <dbl>,
#   predicted_hi <dbl>, predicted <dbl>, varlog <dbl>, lgnp <dbl>
…
Moreover, the AME can be computed for the different modalities of a factor, using the by argument: 

u %>% avg_slopes(variables = c("score", "lprodcubm"), 
                 by = "reg") %>% as_tibble %>% select(1:6)

# A tibble: 6 × 6
  term      contrast    reg        estimate std.error statistic
  <chr>     <chr>       <fct>         <dbl>     <dbl>     <dbl>
1 lprodcubm mean(dY/dX) Other        -0.120   0.00292     -41.0
2 lprodcubm mean(dY/dX) napavalley   -0.105   0.00319     -32.8
3 lprodcubm mean(dY/dX) sonoma       -0.112   0.00293     -38.3
4 score     mean(dY/dX) Other         5.25    0.153        34.3
5 score     mean(dY/dX) napavalley    7.70    0.202        38.2
# ℹ 1 more row
…
