Microeconometrics with R - 13 Duration models
…
The whole survival series can be easily obtained with the following code; we first create a frequency table of durations (the durations are then automatically arranged in an increasing order), the n column then contains the number of spells that end at each period. We then compute the cumulative sums of this counts cumn and the survival probabilities as the cumulative count divided by \(N\). 

surv_tb <- oil %>% count(dur) %>% 
  mutate(cumn = cumsum(n), surv = 1 - cumn / 53)
surv_tb

# A tibble: 46 × 4
    dur     n  cumn  surv
  <int> <int> <int> <dbl>
1     1     1     1 0.981
2     3     2     3 0.943
3     7     1     4 0.925
4     8     1     5 0.906
5    10     2     7 0.868
# ℹ 41 more rows

A more complex calculus (but which will prove to be useful if there are censored spells) consists of computing the number of spells at risk, the hazard and then the survival function as the cumulative product of 1 minus the hazard rate. 

oil %>% 
    count(dur) %>%
    mutate(cumn = cumsum(n),
           at_risk =  ifelse(dur == 1, 53, 53 - lag(cumn)),
           hazard = n / at_risk,
           surv = cumprod(1 - hazard))

# A tibble: 46 × 6
    dur     n  cumn at_risk hazard  surv
  <int> <int> <int>   <dbl>  <dbl> <dbl>
1     1     1     1      53 0.0189 0.981
2     3     2     3      52 0.0385 0.943
3     7     1     4      50 0.02   0.925
4     8     1     5      49 0.0204 0.906
5    10     2     7      48 0.0417 0.868
# ℹ 41 more rows
…
We can see in this example that the hazard rate seems to be roughly constant for a wide range of values of duration (0-100 months) and then decreasing for high values of duration (\(>100\)). The Kaplan-Meier estimator can also be computed using the survreg::surfit function, with the usual formula-data interface. The response must be a Surv object, and the right-hand side of the formula is just an intercept. A Surv object is obtained using the Surv function. With uncensored data, its only argument is the duration response. We then have: 

sf <- survfit(Surv(dur) ~ 1, data = oil)
sf

Call: survfit(formula = Surv(dur) ~ 1, data = oil)

      n events median 0.95LCL 0.95UCL
[1,] 53     53     51      28      72

The print method returns the number of observations (n) the number of events (events), which is equal to the number of observations if all the spells are uncensored, the median spell duration and its 95% confidence interval. The print.summary function returns a table with one row for each time some spells end. The object returned by survfit is not a data frame, but the broom:tidy method coerces it easily to a tibble: 

broom::tidy(sf)

# A tibble: 46 × 8
   time n.risk n.event n.censor estimate std.error conf.high
  <dbl>  <dbl>   <dbl>    <dbl>    <dbl>     <dbl>     <dbl>
1     1     53       1        0    0.981    0.0190     1    
2     3     52       2        0    0.943    0.0336     1    
3     7     50       1        0    0.925    0.0392     0.998
4     8     49       1        0    0.906    0.0443     0.988
5    10     48       2        0    0.868    0.0536     0.964
# ℹ 41 more rows
# ℹ 1 more variable: conf.low <dbl>

There is a plot method for survfit objects that draws the survival curve and its confidence interval. 

Censored sample

 When there are censored observations, the computation is modified. Consider the retirement data set (An, Christensen, and Gupta 2004). It contains the joint duration until retirement for both spouses of 243 couples in Denmark. 

retirement

# A tibble: 2,430 × 17
     id period  agem  agef dum84 unemp year0  durm  durf censm censf
  <dbl>  <dbl> <dbl> <dbl> <dbl> <dbl> <dbl> <dbl> <dbl> <dbl> <dbl>
1     1      1    52    54     0   9.2    81    10     6     0     1
2     1      2    53    55     0   9.8    81    10     6     0     1
3     1      3    54    56     0  10.5    81    10     6     0     1
4     1      4    55    57     1  10.1    81    10     6     0     1
5     1      5    56    58     1   9.1    81    10     6     0     1
# ℹ 2,425 more rows
# ℹ 6 more variables: skillm <dbl>, skillf <dbl>, owner <dbl>,
#   province <dbl>, year <dbl>, dum84bis <dbl>
…
# A tibble: 3 × 9
  gender lowsk   age  wage  time spell uidur month  year
  <fct>  <dbl> <dbl> <dbl> <dbl> <dbl> <dbl> <dbl> <dbl>
1 female     0  48.5 14.0  0.586     1   822     8  2007
2 female     0  53.3 12.4  0.151     1    91     6  2007
3 female     0  50.9  7.99 0.501     1   183     8  2006

We use survfit, this time with a factor, more precisely the gender factor to compute separate survival curves for males and females: 

survfit_gender <- survfit(Surv(time, spell) ~ gender, unteach)
broom::tidy(survfit_gender) %>% print(n = 3)

# A tibble: 450 × 9
    time n.risk n.event n.censor estimate std.error conf.high
   <dbl>  <dbl>   <dbl>    <dbl>    <dbl>     <dbl>     <dbl>
1 0.0110   1805       4        0    0.998   0.00111     1.00 
2 0.0137   1801       7        0    0.994   0.00184     0.998
3 0.0164   1794       6        0    0.991   0.00230     0.995
# ℹ 447 more rows
# ℹ 2 more variables: conf.low <dbl>, strata <chr>
…
\(a\) if \(\tilde{t}_n ^ a < \tilde{t}_n ^ b\),

\(b\) if \(\tilde{t}_n ^ a > \tilde{t}_n ^ b\).

 The competing risk model is a very simple multi-state model which extends the Cox proportional hazard model to the multi-state case. Consider for example state \(a\). For an observation \(n\), if the event \(a\) is observed, we have an observation of a complete spell. Otherwise, if the event is \(b\), this means that \(t_n = \tilde{t}_n^b < \tilde{t}_n^a\) and the observation is censored as far as we are interested in state \(a\). We can therefore estimate the competing risk model with two independent Cox PH models:

for the first, the event is \(a\) and censoring occurs either if the observation is censored or if the event is \(b\),

for the second, the event is \(b\) and censoring occurs either if the observation is censored or if the event is \(a\),

Consider the recall data set, initially used by Katz (1986) and later by Sueyoshi (1995). It contains 1045 spells of unemployment in 1980. 

recall %>% print(n = 3)

# A tibble: 1,045 × 16
     id spell end      duration   age sex    educ race     nb ui   
  <dbl> <dbl> <fct>       <dbl> <int> <fct> <int> <fct> <int> <fct>
1     4     1 recall         17    26 male      5 white     3 yes  
2     7     2 recall         39    24 male      8 white     4 no   
3     7     3 censored       40    23 male      8 white     4 no   
# ℹ 1,042 more rows
# ℹ 6 more variables: marital <fct>, unemp <int>, wifemp <fct>,
#   homeowner <fct>, occupation <fct>, industry <fct>
…
To estimate the binomial model, we first need to construct the pooled sample, i.e., to get one line for one period for every spell. We first create a data frame with only the identifiers for the individual and the spell and the duration. We then nest the data frame by the two identifiers. This results in a new column called data that contains, for each observation a one-line one-column tibble containing the duration of the spell. Using mutate, we then create a new column in data containing integers from 1 to the given value of duration for each observation. We then ungroup and remove the duration column. 

durations <- recall$duration %>% unique
pooled <- recall %>% 
  select(spell, id, duration) %>% 
  nest_by(spell, id) %>% 
  mutate(period = list(1:data$duration)) %>% 
  unnest(cols = c(data, period)) %>% 
  ungroup %>% 
  select(- duration)
pooled %>% print(n = 3)

# A tibble: 14,646 × 3
  spell    id period
  <dbl> <dbl>  <int>
1     1     4      1
2     1     4      2
3     1     4      3
# ℹ 14,643 more rows
…
