Microeconometrics with R - 7 Endogeneity
…
To empirically analyze the distribution of these three estimators, we then generate several samples by setting the R argument, compute the estimators for every sample and analyze the empirical distribution of the estimators. This can be easily done using tidyr::nests and tidyr::unnests functions, as in Section 1.6.2. 

set.seed(1)
d <- iv_data(R = 1E04, N = 50) %>%
    nest(.by = id) %>%
    transmute(model = map(data, iv_coefs)) %>%
    unnest(cols = model)
d %>% print(n = 3)

# A tibble: 10,000 × 3
    ols    ivo     iv
  <dbl>  <dbl>  <dbl>
1  1.56 0.437  0.769 
2  1.42 0.605  0.415 
3  1.64 0.0185 0.0786
# ℹ 9,997 more rows
…
vietnam %>% print(n = 2)

# A tibble: 234 × 8
  variable birth eligible race   year  mean    sd   cpi
  <chr>    <dbl> <fct>    <chr> <dbl> <dbl> <dbl> <dbl>
1 income    1950 no       white  1966  479.  8.35  97.2
2 income    1950 no       white  1967  825. 10.8  100  
# ℹ 232 more rows

We divide the mean income and its standard deviation by the consumer price index (cpi), we then create two columns for eligible and non-eligible men and we compute the mean difference (dmean) and its standard deviation (sd_dmean): 

dinc_elig <- vietnam %>%
    filter(variable == "income") %>%
    mutate(mean = mean / cpi * 100, sd = sd / cpi * 100) %>% 
    select(- variable, - cpi) %>%
    pivot_wider(names_from = eligible, values_from = c(mean, sd)) %>%
    mutate(dmean = mean_yes - mean_no, 
           sd_dmean = sqrt(sd_no ^ 2 + sd_yes ^ 2)) %>%
    select(-(mean_no:sd_yes))
dinc_elig %>% print(n = 2)

# A tibble: 108 × 5
  birth race   year  dmean sd_dmean
  <dbl> <chr> <dbl>  <dbl>    <dbl>
1  1950 white  1966 -22.4      12.1
2  1950 white  1967  -8.02     15.1
# ℹ 106 more rows

The results match table 1 of Angrist (1990) page 318 (except that, in the table, the income is not divided by the cpi). The mean income difference is the numerator of the Wald estimator. The denominator is the difference of enrollment probability between draft eligible and ineligible young men. The author estimates this difference using the data of the 1984 Survey of Income and Program Participation (SIPP), which are available in the subset of the vietnam data set obtained with variable == "veteran" and contains the share of veterans and the standard deviation of this share for eligible and non-eligible young men by year of birth and race (birth and race): 

veterans <- vietnam %>%
    filter(variable == "veteran") %>%
    select(- year, - cpi, - variable)
veterans %>% print(n = 3)

# A tibble: 18 × 5
  birth eligible race   mean     sd
  <dbl> <fct>    <chr> <dbl>  <dbl>
1  1950 no       white 0.193 0.0169
2  1950 yes      white 0.353 0.0223
3  1950 total    white 0.267 0.0140
# ℹ 15 more rows

We then create one column for eligible and non-eligible young men, and we compute the difference of shares of enrollment and its standard deviation: 

dshare_elig <- veterans %>%
    pivot_wider(names_from = eligible, values_from = c(mean, sd)) %>%
    mutate(dshare = mean_yes - mean_no, 
           sd_dshare = sqrt(sd_yes ^ 2 + sd_no ^ 2)) %>%
    select(- (mean_no:sd_total))
dshare_elig %>% print(n = 2)

# A tibble: 6 × 4
  birth race  dshare sd_dshare
  <dbl> <chr>  <dbl>     <dbl>
1  1950 white  0.159    0.0280
2  1951 white  0.136    0.0277
# ℹ 4 more rows

Finally, we join the two tables by race and year of birth; we compute the Wald estimator of the income difference, its standard deviation (using Equation 7.7) and the Student statistic, which is their ratio: 

wald <- dinc_elig %>%
    left_join(dshare_elig, by = c("birth", "race")) %>%
    mutate(wald = dmean / dshare,
           sd = sd_dmean / dshare,
           z = wald / sd) %>%
    select(birth, race, year, wald, sd, z)
wald %>% print(n = 2)

# A tibble: 108 × 6
  birth race   year   wald    sd      z
  <dbl> <chr> <dbl>  <dbl> <dbl>  <dbl>
1  1950 white  1966 -141.   76.0 -1.85 
2  1950 white  1967  -50.3  94.5 -0.532
# ℹ 106 more rows
…
Use the Cholesky decomposition of \(\hat{\Sigma} ^ {-1}\) to get \(V\) such that \(V ^ \top V = \Sigma ^ {-1}\),

Premultiply the covariates and the response by \(\hat{\Psi} = V \otimes I\) and the instruments by \(\left(\hat{\Psi} ^ {-1}\right) ^ {\top} = (V ^ {-1}) ^ \top \otimes I\),

Regress the transformed covariates on the transformed instruments and retrieve the fitted values,

Regress the transformed response on the fitted values of the previous regression.

An example: the watermelon market

Suits (1955) built an econometric model of the watermelon market using a time series for the United States, and his study was complemented by Wold (1958) who rebuilt the data set. This data set (called watermelon) is a good example of the use of system estimation with endogeneity, and its use for teaching purposes is advocated by Stewart (2019):

watermelon %>% print(n = 2)

# A tibble: 22 × 12
   year     q     h     y     n     p    pc    pv     w    pf    d1
  <dbl> <dbl> <dbl> <dbl> <dbl> <dbl> <dbl> <dbl> <dbl> <dbl> <dbl>
1  1930  1.93  1.90  4.87  2.09  2.07 0.976 0.367  1.46  1.10     0
2  1931  1.89  1.88  4.80  2.09  2.00 0.753 1.18   1.36  1.11     0
# ℹ 20 more rows
# ℹ 1 more variable: d2 <dbl>
…
