Microeconometrics with R - 3 Multiple regression model
…
\[
\ln\frac{Y}{L} = C + \frac{\kappa}{1-\kappa-\lambda} \ln i +
\frac{\lambda}{1-\kappa-\lambda} \ln e - \frac{\kappa + \lambda}{1 - \kappa-\lambda} \ln v + \epsilon
\tag{3.4}\]

where \(e\) is the per capita level of human capital. The model now contains three covariates and three slopes (\(\beta_i\), \(\beta_e\) and \(\beta_v\)). Moreover, the structural model implies a structural restriction (\(\beta_i + \beta_e + \beta_v = 0\)) that is testable.

Data set

growth contains the data used by Mankiw, Romer, and Weil (1992). It consists of 121 countries for 1985.

growth %>% print(n = 3)

# A tibble: 121 × 9
  country group  gdp60 gdp85 gdpgwth popgwth   inv school  growth
  <chr>   <fct>  <dbl> <dbl>   <dbl>   <dbl> <dbl>  <dbl>   <dbl>
1 Algeria other   2485  4371     4.8   0.026 0.241  0.045  0.565 
2 Angola  lqdata  1588  1171     0.8   0.021 0.058  0.018 -0.305 
3 Benin   lqdata  1116  1071     2.2   0.024 0.108  0.018 -0.0412
# ℹ 118 more rows
…
     cost_cst  cost_y cost_y2 cost_pl cost_pm cost_pl2 cost_plm
[1,]        1  0.1661  0.0138 -0.3187 -0.0787  0.05077  0.02508
[2,]        1 -1.2880  0.8294 -0.3480 -0.9062  0.06056  0.31537
     cost_pm2 sl_cst sl_pl sl_pm sm_cst sm_pl sm_pm
[1,] 0.003097      0     0     0      0     0     0
[2,] 0.410581      0     0     0      0     0     0

Formula::model.part enables to retrieve any part of the model. Here, we want to extract the three responses which are on the only left side of the formula. Therefore, we set lrs and rhs respectively to 1 and 0. The result is a data frame with three variables ct, sl and sm. We then use dplyr::pivot_longer, to stack the three responses in one column. Note the use of the optional argument cols_vary that is set to "slowest", so that the elements are stacked columnwise: 

Y <- model.part(eq_sys, mf, rhs = 0, lhs = 1)
ys <- Y %>% pivot_longer(1:3, cols_vary = "slowest", 
                         names_to = "equation", values_to = "response")
print(ys, n = 2)

# A tibble: 411 × 2
  equation response
  <chr>       <dbl>
1 ct          0.232
2 ct         -1.25 
# ℹ 409 more rows

The estimation can be performed using the response vector and the matrix of covariates: 

lm(ys$response ~ Zs - 1)

However, nicer input is obtained by constructing a tibble by binding the columns of ys and Zs and then using the usual formula-data interface. 

stack_data <- ys %>% bind_cols(Zs)
stack_data %>% print(n = 2)

# A tibble: 411 × 16
  equation response cost_cst cost_y cost_y2 cost_pl cost_pm cost_pl2
  <chr>       <dbl>    <dbl>  <dbl>   <dbl>   <dbl>   <dbl>    <dbl>
1 ct          0.232        1  0.166  0.0138  -0.319 -0.0787   0.0508
2 ct         -1.25         1 -1.29   0.829   -0.348 -0.906    0.0606
# ℹ 409 more rows
# ℹ 8 more variables: cost_plm <dbl>, cost_pm2 <dbl>, sl_cst <dbl>,
#   sl_pl <dbl>, sl_pm <dbl>, sm_cst <dbl>, sm_pl <dbl>,
#   sm_pm <dbl>
…
