Microeconometrics with R - 6 Non-spherical disturbances
…
The plm package (Croissant and Millo 2008, 2018) provides different tools to deal with panel or pseudo-panel data. In particular, Breusch and Pagan’s test can easily be obtained using plm::plmtest. We set the type argument to "bp" to get the statistic of the original Breusch-Pagan test: 

library(plm)
plmtest(log(earning) ~ poly(age, 2) + educ, twins, type = "bp") %>% gaze
## chisq = 4.222, df: 1, pval = 0.040

The absence of individual effects is rejected at the 5% level, but not at the 1% level.

The model fitted by Schaller (1990) is a simple linear model, the response being the rate of investment (ikn) and the unique covariate Tobin’s Q (qn): 

tobinq %>% print(n = 3)

# A tibble: 6,580 × 15
  cusip  year  isic    ikb   ikn    qb    qn kstock    ikicb  ikicn
  <int> <dbl> <int>  <dbl> <dbl> <dbl> <dbl>  <dbl>    <dbl>  <dbl>
1  2824  1951  2835 0.230  0.205  5.61 10.9    27.3 NA       0.0120
2  2824  1952  2835 0.0403 0.200  6.01 12.2    30.5  0.193   0.0245
3  2824  1953  2835 0.0404 0.110  4.19  7.41   31.7  0.00292 0.0976
# ℹ 6,577 more rows
# ℹ 5 more variables: omphi <dbl>, qicb <dbl>, qicn <dbl>,
#   sb <dbl>, sn <dbl>
…
which leads to the clustered estimated variance. More generally, for \(N\) observations belonging to \(G\) groups, this estimator is:

\[
\hat{\sigma}_{\mbox{CL}\hat{\beta}} ^2= \frac{1}{S_{xx}^2}\sum_{g = 1} ^ G \left(\sum_{n \in g} (x_n -
\bar{x})\hat{\epsilon}_n \right) ^ 2
\tag{6.10}\]

which is consistent with the hypothesis that errors are correlated within a group, but uncorrelated between groups. To illustrate the computation of robust covariance estimators, we use the data set urban_gradient of Duranton and Puga (2020). It contains the population, the area and the distance to the central business district for 2315 block groups4 in Alabama.5

urban_gradient %>% print(n = 5)

# A tibble: 2,315 × 7
  msa        county  tract  blkg  area population distance
  <chr>      <chr>   <dbl> <dbl> <dbl>      <dbl>    <dbl>
1 Montgomery Autauga 20100     1  4.24        530     19.6
2 Montgomery Autauga 20100     2  5.57       1282     20.8
3 Montgomery Autauga 20200     1  2.06       1274     19.3
4 Montgomery Autauga 20200     2  1.28        944     18.0
5 Montgomery Autauga 20300     1  3.87       2538     18.2
# ℹ 2,310 more rows
…
