Microeconometrics with R - 14 Discrete choice models
…
library(mlogit)

14.1 Data management and model description

Data management

Data sets used for discrete choice models estimation concern some individuals, who make one or a sequential choice of one alternative among a set of mutually exclusive alternatives. The determinants of these choices are covariates that can depend on the alternative and the choice situation, only on the alternative or only on the choice situation. Data sets can have two different shapes: a wide shape (one row for each choice situation) or a long shape (one row for each alternative and, therefore, as many rows as there are alternatives for each choice situation). mlogit deals with both formats. It depends on the dfidx package which takes as first argument a data.frame and returns a dfidx object, which is a data.frame in “long” format with a special data frame column which contains the indexes. The second argument is called idx. In its simple use, it should be a list (or a vector) of two characters containing the choice situation and the alternative indexes.

Wide format

dutch_railways3 is an example of a wide data set:

dutch_railways %>% print(n = 4)

# A tibble: 2,929 × 11
     id choiceid choice price_A price_B time_A time_B change_A
  <int>    <int> <fct>    <dbl>   <dbl>  <dbl>  <dbl>    <int>
1     1        1 A         10.9    18.2   2.5    2.5         0
2     1        2 A         10.9    14.5   2.5    2.17        0
3     1        3 A         10.9    18.2   1.92   1.92        0
4     1        4 B         18.2    14.5   2.17   2.5         0
# ℹ 2,925 more rows
# ℹ 3 more variables: change_B <int>, comfort_A <int>,
#   comfort_B <int>
…
Tr <- dfidx(dutch_railways, shape = "wide", varying = 4:11, sep = "_",
            idx = list(c("choiceid", "id")), idnames = c(NA, "alt"),
            opposite = c("price", "time", "change", "comfort"))

Note the use of the opposite argument for the four covariates: we expect negative coefficients for all of them, taking the opposite of the covariates will lead to expected positive coefficients.

Tr %>% print(n = 4)

# A tibble: 5,858 × 6
# Index:    2929 (choiceid) x 2 (alt)
# Balanced: yes
# Nesting:  choiceid (id)
  idx   choice price  time change comfort
  <idx> <fct>  <dbl> <dbl>  <int>   <int>
1 1:A   A      -10.9 -2.5       0      -1
2 1:B   A      -18.2 -2.5       0      -1
3 2:A   A      -10.9 -2.5       0      -1
4 2:B   A      -14.5 -2.17      0      -1
5 3:A   A      -10.9 -1.92      0      -1
# ℹ 5,853 more rows

An idx column is added to the data, which contains the three relevant indexes: choiceid is the choice situation index, alt the alternative index and id the individual index. This column can be extracted using the idx function: 

idx(Tr)

Long format

toronto_montreal,4 is an example of a data set in long format. It presents the choice of individuals for a transport mode for the Toronto-Montreal corridor in 1989: 

toronto_montreal %>% print(n = 5)

# A tibble: 15,520 × 11
   case alt   choice  dist  cost   ivt   ovt  freq income urban
  <int> <fct>  <int> <int> <dbl> <int> <int> <int>  <int> <int>
1     1 train      0    83  28.2    50    66     4     45     0
2     1 car        1    83  15.8    61     0     0     45     0
3     2 train      0    83  28.2    50    66     4     25     0
4     2 car        1    83  15.8    61     0     0     25     0
5     3 train      0    83  28.2    50    66     4     70     0
# ℹ 15,515 more rows
# ℹ 1 more variable: noalt <int>
…
MC <- dfidx(toronto_montreal, subset = noalt == 4, 
            idx = c("case", "alt"))

More simply, as the two indexes are stored in the first two columns of the original data frame, the idx argument can be unset: 

MC <- dfidx(toronto_montreal, subset = noalt == 4)

and the indexes can be kept as standalone series if the drop.index argument is set to FALSE: 

MC <- dfidx(toronto_montreal, subset = noalt == 4, 
            idx = c("case", "alt"), drop.index = FALSE)
MC %>% print(n = 5)

# A tibble: 11,116 × 12
# Index:    2779 (case) x 4 (alt)
# Balanced: yes
  idx        case alt   choice  dist  cost   ivt   ovt  freq income
  <idx>     <int> <fct>  <int> <int> <dbl> <int> <int> <int>  <int>
1 109:train   109 train      0   377  58.2   215    74     4     45
2 109:air     109 air        1   377 143.     56    85     9     45
3 109:bus     109 bus        0   377  27.5   301    63     8     45
4 109:car     109 car        0   377  71.6   262     0     0     45
5 110:train   110 train      0   377  58.2   215    74     4     70
# ℹ 11,111 more rows
# ℹ 2 more variables: urban <int>, noalt <int>
…
\[
P_j=\frac{e^{Z_j/\lambda_l}}{\sum_{k \in B_l}
    e^{Z_k/\lambda_l}}\times
\frac{e^{W_l+\lambda_l I_l}}{\sum_{m=1}^Me^{W_m+\lambda_m I_m}}.
\]

The first term \(\mbox{P}_{j\mid l}\) is the conditional probability of choosing alternative \(j\) if nest \(l\) is chosen. It is often referred to as the lower model. The second term \(\mbox{P}_l\) is the marginal probability of choosing nest \(l\) and is referred to as the upper model. \(W_l+\lambda_l I_l\) can be interpreted as the expected utility of choosing the best alternative in \(l\), \(W_l\) being the expected utility of choosing an alternative in this nest (whatever this alternative is) and \(\lambda_l I_l\) being the expected extra utility gained by being able to choose the best alternative in the nest. The inclusive values link the two models. It is then straightforward to show that IIA applies within nests, but not for two alternatives in different nests.

A consistent but inefficient way of estimating the nested logit model is to estimate separately its two components. The coefficients of the lower model are first estimated, which enables the computation of the inclusive values \(I_l\). The coefficients of the upper model are then estimated, using \(I_l\) as covariates. Maximizing directly the likelihood function of the nested model leads to a more efficient estimator. 

To illustrate the estimation of the nested logit model, we use the telephone data set, used by Train, McFadden, and Ben-Akiva (1987) and Walker, Ben-Akiva, and Bolduc (2007).

telephone %>% print(n = 5)

# A tibble: 2,170 × 4
  choice service  household  cost
  <lgl>  <fct>        <int> <dbl>
1 FALSE  budget           1  1.76
2 FALSE  extended         1 13.8 
3 FALSE  local            1  2.55
4 FALSE  metro            1  3.15
5 TRUE   standard         1  1.75
# ℹ 2,165 more rows
…
