Microeconometrics with R - 1 Simple linear regression model
…
Consider now the case where the mean wage is the same for every education level: \(\bar{y}_b=\bar{y}_l=\bar{y}_m=\bar{y}=9.2\). In this case, the covariance is obviously 0 because \(\bar{y}_k-\bar{y}=0\;\forall k\). 

1.2 Model and data set

We’ll consider in this chapter the question of mode shares for inter-urban transportation. More precisely, considering that a trip can be made using one out of two transport modes (air and rail), how can we modelize the market shares of both modes? We’ll use in this section a popular model in transportation economics which is the price-time model. price_time contains aggregate data about rail and air transportation between Paris and 13 French towns in 1995, it is reproduced from Bonnel (2004) pp. 364-366.

price_time %>% print(n = 3)

# A tibble: 13 × 7
  town     trafic_rail trafic_air price_rail price_air time_rail
  <chr>          <dbl>      <dbl>      <dbl>     <dbl>     <dbl>
1 Bordeaux        2005       1400       48.3      82.6       242
2 Brest            471        428       51.6      98.6       308
3 Clermont         429        243       32.7      89.4       266
# ℹ 10 more rows
# ℹ 1 more variable: time_air <dbl>
…
datas %>% filter(id == 1) %>% 
  mutate(cn = (x - mean(x)) / sum((x - mean(x)) ^ 2)) %>%
  summarise(slope = sum(cn * y)) %>% 
  pull
## [1] 0.03287

To get values of the estimator for every sample, we have to loop on this command for id from 1 to R. A good practice in R is to avoid the use of explicit loops whenever it’s possible. The group_by / summarise couple of functions from the dplyr package can be used instead. 

results <- datas  %>% 
  group_by(id) %>% 
  mutate(cn = (x - mean(x)) / sum((x - mean(x)) ^ 2)) %>%
  summarise(slope = sum(cn * y), intercept = mean(y) - slope * mean(x))
results

# A tibble: 1,000 × 3
     id  slope intercept
  <int>  <dbl>     <dbl>
1     1 0.0329    -0.166
2     2 0.0309    -0.181
3     3 0.0348    -0.213
4     4 0.0267    -0.129
5     5 0.0270    -0.127
# ℹ 995 more rows
…
We’ll see in Chapter 2 that the expected value of \(\hat{\beta}\) is \(\beta=0.032\) (we’ll say that the OLS estimator is unbiased) and that its standard deviation is \(\sigma_\epsilon / \sigma_x / \sqrt{N} = 0.0041\). The mean and standard deviations for our 1000 values of \(\hat{\beta}\) are estimates of these two theoretical values. We can see that the mean of \(\hat{\beta}\) is actually equal to 0.032 and that the standard deviation equals 0.00437, which is close to the theoretical value.

A more general method to perform simulation is to use list-columns of data frames. To conduct such an analysis step by step, we start with a very small example, with \(R = 2\) and \(N = 3\).

R <- 2
N <- 3
small_data <- tibble(id = rep(1:R, each = N),
                     x = rep(x[1:N], R), 
                     eps = rnorm(R * N, sd = seps),
                     y = alpha + beta * x + eps)
small_data

# A tibble: 6 × 4
     id     x     eps     y
  <int> <dbl>   <dbl> <dbl>
1     1  26.7 -0.0624 0.593
2     1  20.5  0.0243 0.479
3     1  27.0  0.111  0.775
4     2  26.7 -0.0124 0.643
5     2  20.5 -0.0356 0.419
# ℹ 1 more row
…
