Microeconometrics with R - 9 Spatial econometrics
…
Computation on sf objects

 The regression discontinuity framework can be adapted to consider geographic discontinuities. Some entities are considered on both sides of a border and the forcing variable is then the distance to the border.6 The us_counties data set contains the borders of US counties:

us_counties %>% print(n = 3)

Simple feature collection with 3141 features and 4 fields
Geometry type: MULTIPOLYGON
Dimension:     XY
Bounding box:  xmin: -19940000 ymin: 2147000 xmax: 20010000 ymax: 11520000
Projected CRS: WGS 84 / Pseudo-Mercator
# A tibble: 3,141 × 5
  fips  gid       state   county                            geometry
* <chr> <chr>     <chr>   <chr>                   <MULTIPOLYGON [m]>
1 01001 USA.1.1_1 Alabama Autauga (((-9675520 3850831, -9652842 385…
2 01003 USA.1.2_1 Alabama Baldwin (((-9798375 3599675, -9797718 360…
3 01005 USA.1.3_1 Alabama Barbour (((-9508473 3713483, -9545463 371…
# ℹ 3,138 more rows
…
Figure 9.6: Discontinuity of the mortgage defaults data set

The intercept is a bit more than 7% outside the border and about 4.5% inside the border, so that the effect of the Texas specific regulation seems significant (a reduction of about 2.5% of the mortgage default rate). 

9.2 Two examples

To illustrate the techniques presented in the subsequent sections, we’ll use two data sets. The first one, from Wheeler (2003), is called agglo_growth and deals with the topic of economies and diseconomies of agglomeration. The second one, called sp_growth is from Ertur and Koch (2007) and is used to fit an extension of Solow’s growth model.

Agglomeration economies and diseconomies

The agglo_growth contains data about US counties in 1990, identified by their fips code. 

agglo_growth

# A tibble: 3,106 × 14
  fips  emp_gr pop_gr    emp    pop college manuf  unemp income
  <chr>  <dbl>  <dbl>  <dbl>  <dbl>   <dbl> <dbl>  <dbl>  <dbl>
1 01001  0.203 0.0591 12591. 32259.  0.121  0.248 0.0900  5774.
2 01003  0.367 0.224  29807. 78556.  0.121  0.206 0.0686  5960.
3 01005  0.177 0.0264  8642. 24756.  0.0923 0.344 0.0874  4544.
4 01007  0.224 0.0528  5377. 15723.  0.0490 0.424 0.158   4859.
5 01009  0.248 0.0737 13713. 36459.  0.0529 0.287 0.0892  5213.
# ℹ 3,101 more rows
# ℹ 5 more variables: educ_sh <dbl>, hw_sh <dbl>, pol_sh <dbl>,
#   notwhite <dbl>, type <fct>
…
Figure 9.8: Relation between initial population and population growth in Louisiana

Solow model

The second example is from Ertur and Koch (2007) who estimated a growth model for the countries of the world taking spatial correlation into account. The sp_solow data set is provided by the necountries package: 

data("sp_solow", package = "necountries")
sp_solow

# A tibble: 91 × 6
  name      code   gdp60  gdp95 saving labgwth
  <chr>     <chr>  <dbl>  <dbl>  <dbl>   <dbl>
1 Angola    AGO    5136.  2629. 0.0736 0.0233 
2 Argentina ARG   18733. 24738. 0.178  0.0165 
3 Australia AUS   26480. 45331. 0.247  0.0210 
4 Austria   AUT   15283. 45023. 0.261  0.00291
5 Burundi   BDI     889.  1339. 0.0521 0.0168 
# ℹ 86 more rows
…
sp_solow <- sp_solow %>% 
  mutate(code = ifelse(code == "ZAR", "COD", code))
sps <- countries(include = "Hong Kong", exclude = "Antarctica") %>%
    select(iso3, country, point) %>% 
    left_join(sp_solow, by = "code") %>% select(- name)
sps

Simple feature collection with 200 features and 8 fields
Active geometry column: polygon
Geometry type: GEOMETRY
Dimension:     XY
Bounding box:  xmin: -180 ymin: -55.67 xmax: 180 ymax: 83.12
Geodetic CRS:  WGS 84
# A tibble: 200 × 10
  iso3  country           point                              polygon
  <chr> <chr>       <POINT [°]>                       <GEOMETRY [°]>
1 AFG   Afghani…  (69.18 34.52) POLYGON ((74.54 37.02, 74.37 37.15,…
2 ALB   Albania   (19.82 41.33) POLYGON ((20.57 41.87, 20.6 41.95, …
3 DZA   Algeria   (3.049 36.77) POLYGON ((-4.822 25, -4.166 24.57, …
4 AND   Andorra   (1.527 42.51) POLYGON ((1.707 42.5, 1.722 42.61, …
5 AGO   Angola   (13.23 -8.836) MULTIPOLYGON (((13.07 -4.635, 12.9 …
# ℹ 195 more rows
# ℹ 6 more variables: gdp60 <dbl>, gdp95 <dbl>, i <dbl>,
#   labgwth <dbl>, v <dbl>, growth <dbl>
…
and their sum is \((y_n - \bar{y})(\tilde{y}_n - \bar{y})\), which is the numerator of Moran’s \(I\) statistic. Therefore, we have:

\[
I = \frac{\sum_n I_n}{\sum_n (y_n - \bar{y}) ^ 2}
\]

Local Moran’s statistics are obtained using the spdep::localmoran function: 

locmor <- localmoran(louisiana$pop_gr, W_louis)

which returns a matrix, with a line for every observation and column containing the local Moran values, their expectation, variance, the standardized statistic and the p-value. It’s easier to coerce this matrix to a tibble in order to extract extreme values of the statistic:11 

locmor %>% as_tibble %>% rename(pval = 5) %>% filter(pval < 0.01)

# A tibble: 11 × 5
  Ii         E.Ii       Var.Ii     Z.Ii       pval      
  <localmrn> <localmrn> <localmrn> <localmrn> <localmrn>
1  1.17852   -1.603e-02 0.154640    3.038     0.002384  
2  0.93029   -7.606e-03 0.090380    3.120     0.001810  
3 -0.03674   -2.119e-05 0.000175   -2.776     0.005510  
4  2.31977   -6.666e-02 0.744962    2.765     0.005694  
5  3.00564   -8.712e-02 1.210852    2.811     0.004945  
# ℹ 6 more rows
…
