Microeconometrics with R - 11 Censored and truncated models
…
Left-truncated response

The charitable data set is used by Wilhelm (2008) and concerns charitable giving.

charitable %>% print(n = 3)

# A tibble: 2,384 × 7
  donation donparents education        religion income married south
     <dbl>      <dbl> <fct>            <fct>     <dbl>   <dbl> <dbl>
1     335        5210 less_high_school other    21955.       0     0
2      75       13225 high_school      protest… 22104.       0     0
3    6150.       3375 some_college     catholic 50299.       0     0
# ℹ 2,381 more rows
…
 BIC 

    8119.4 

 Log.Lik. 

    −4005.274 

Right-truncated response

The food data set is used by De Crombrugghe, Palm, and Urbain (1997) to estimate the demand for food in the Netherlands.

food %>% print(n = 3)

# A tibble: 4,611 × 7
   year weights hsize  ageh income  food midage
  <dbl>   <dbl> <dbl> <dbl>  <dbl> <dbl>  <dbl>
1  1980   0.615     2     1  55900  5280      0
2  1980   1.52      1     1  10600  1700      0
3  1980   1.16      2     5  34800  6730      0
# ℹ 4,608 more rows
…
