Microeconometrics with R - 8 Treatment effect
…
Consider now the instrumental variable estimator. It estimates, in the general case, the following population estimand: \(\frac{\mbox{cov}(y, w)}{\mbox{cov}(d, w)}\), which, for the case where both \(d\) and \(w\) are binary, reduces to:

\[
\frac{\mbox{E}\left(y(1, d(1)) - y(0, d(0))\right)}
{\mbox{E}\left(d(1) - d(0)\right)}
\tag{8.6}\]

The numerator is the average causal effect of \(w\) on \(y\) for the compliers and the denominator is the share of compliers in the population. Angrist, Imbens, and Rubin (1996) call Equation 8.6 the local average treatment effect (LATE) to stress the fact that what is estimated using the instrumental variable estimator is an average treatment effect for only a subset of the population called the compliers, ie those for which a change in the value of \(w\) results in a change in the value of \(d\). The numerator is also called the reduced form equation, as it measures the effect of the instrument on the outcome. The denominator is called the intention to treat equation, it measures the effect of the instrument on the treatment dummy. 

As an example, we use the data set of Angrist et al. (2002) called paces. The authors investigate the effect of a large school voucher program in Columbia called PACES. This voucher covers more than half of the cost of private secondary school and may induce parents to enroll their children in private schools, which are known to provide much better service than public schools. In this case, \(w\) is a dummy for children who receive the voucher and \(d\) is a dummy for enrollment in private school.

paces %>% print(n = 2)

# A tibble: 1,577 × 18
     id privsch educyrs voucher pilot housvisit city   phone   age
  <dbl>   <dbl>   <dbl>   <dbl> <dbl>     <dbl> <fct>  <dbl> <dbl>
1     3       1       8       1     0         0 bogota     1    14
2     4       1       8       0     0         0 bogota     1    14
# ℹ 1,575 more rows
# ℹ 9 more variables: sex <fct>, strata <fct>, smpl <fct>,
#   month <fct>, married <dbl>, finish8 <dbl>, repetitions <dbl>,
#   in_school <dbl>, year <fct>
…
\[
y_{nt} = \beta_0 + \beta_x x_{n} + \beta_p p_{nt} + \theta x_{n} p_{nt} + \epsilon_{nt}
\]

with \(t=1, 2\), (the periods before and after the attack). The car_thefts data set contains repeated observations of car thefts (thefts) for 876 blocks. Each block is observed 10 times on a monthly basis, and the month of the attack (July) is split into two half-month observations.

car_thefts %>% print(n = 3)

# A tibble: 8,760 × 8
  block date       barrio calle   distance thefts period  days
  <dbl> <date>     <chr>  <chr>   <fct>     <dbl> <fct>  <dbl>
1   870 1994-04-01 Once   Cordoba one           0 before    30
2   851 1994-04-01 Once   Tucuman two           0 before    30
3   843 1994-04-01 Once   Lavalle same          0 before    30
# ℹ 8,757 more rows
…
                     Estimate Std. Error t value Pr(>|t|)
periodafter           0.01055    0.00645    1.64    0.102
distance              0.00898    0.02218    0.40    0.686
periodafter:distance -0.07232    0.03137   -2.31    0.021

The effect of police on thefts is \(-0.07\), which is very high as the average number of monthly theft per block is 0.09 and it is significant. The same difference-in-differences estimator can be obtained by computing a t-test of equality of the two means. We first reshape the data set in order to have one line per block, and we compute the after-before difference: 

diffs <- two_obs %>%
    mutate(distance = ifelse(distance == "same", "yes", "no")) %>%
    pivot_wider(names_from = period, values_from = thefts) %>%
    mutate(dt = after - before)
diffs %>% print(n = 3)

# A tibble: 876 × 5
  block distance before  after     dt
  <dbl> <chr>     <dbl>  <dbl>  <dbl>
1     1 no        0     0       0    
2     2 no        0     0.224   0.224
3     3 no        0.290 0.0449 -0.246
# ℹ 873 more rows

 and we then use the t.test function: 

t.test(dt ~ distance, diffs, var.equal = TRUE) %>% gaze
## diff = 0.072 (0.026), t = 2.739, df: 874, pval = 0.006

The difference-in-differences can be extended to the case where the observation units before and after the implementation of the treatment are not the same. This is the case in Hong (2013)’, which studied the impact of the introduction of Napster on music expenditure. The study is based on the Consumer Expenditure Survey, which is performed on a quarterly basis, and the data set is called napster. Napster was introduced in June 1999 and became the dominant file-sharing service. Households with (without) internet access constitute the treatment (control) group. From the date series, we construct a period variable using June 1999 as the cutoff: 

napster <- napster %>%
    select(date, expmusic, internet, weight) %>%
    mutate(period = ifelse(date < ymd("1999-06-01"), "before", "after"),
           period = factor(period, levels = c("before", "after")))
napster %>% print(n = 3)

# A tibble: 107,650 × 5
  date       expmusic internet weight period
  <date>        <dbl> <fct>     <dbl> <fct> 
1 1997-05-01        0 no       27471. before
2 1997-06-01        0 yes      23567. before
3 1997-06-01        0 no       26211. before
# ℹ 107,647 more rows
…
The estimated treatment effect is \(0.177\), which is slightly higher than the treatment effect computed with the whole sample which was 14.7%. It is highly significant with the different flavors of the standard deviations ranging from \(0.035\) to \(0.049\).

An alternative to using strata and computing the ATET as a weighted average of the difference of the mean of the outcome between treated and control observations in each stratum is to match each treated observation to one or several observations in the control group. The simplest algorithm consists of selecting, for every treated observation, the control observation which has the closest value of propensity score. Using the model tibble returned by pscore, we begin with constructing two tibbles, one for the treatment group and one for the control group, containing only the index of the observation and the value of the propensity score: 

tusc_tr <- ps$model %>% filter(group == "treated") %>%
    select(id_tr = id, ps_tr = pscore)
tusc_ctl <- ps$model %>% filter(group == "control") %>%
    select(id_ctl = id, ps_ctl = pscore)
tusc_tr %>% print(n = 2)
## # A tibble: 281 × 2
##   id_tr ps_tr
##   <dbl> <dbl>
## 1   214 0.148
## 2   310 0.134
## # ℹ 279 more rows
…
# A tibble: 2 × 2
  id_tr     n
  <dbl> <int>
1   214   309
2   310   331

and they are matched to respectively 309 and 331 observations in the control group. With rolling joins, one can select only one observation, the closest one, using the closest function: 

match_sup <- tusc_tr %>%
    left_join(tusc_ctl, join_by(closest(ps_tr <= ps_ctl))) %>%
    rename(ps_sup = ps_ctl, id_sup = id_ctl)
match_sup %>% print(n = 3)

# A tibble: 281 × 4
  id_tr  ps_tr id_sup ps_sup
  <dbl>  <dbl>  <dbl>  <dbl>
1   214 0.148    4098 0.149 
2   310 0.134    4594 0.135 
3   332 0.0789   4765 0.0789
# ℹ 278 more rows
…
In our sample, the highest difference is about \(2.6\)%. The sample can be reduced to observations for which the difference is lower than a given value. This is called caliper matching. For example, to restrict the sample to treated observations for which the propensity score difference with its matched control observation is lower than 1%, we would use: 

mathc_nearest <- match_nearest %>% filter(abs(ps_tr - ps_ctl) < 0.01)

We then lose 25 treated observations. To compute the treatment effect, we pivot the tibble in “long” format (one line for each observation) and we join it to tuscany to get the response (perm) for each observation: 

match_smpl <- match_nearest %>% 
  select(- ps_tr, - ps_ctl) %>% 
  pivot_longer(1:2) %>% 
  separate(name, into = c(".id", "group")) %>% 
  select(id = value, gp = group) %>% 
  left_join(select(tuscany, id, perm), by = "id")
match_smpl %>% print(n = 2)  

# A tibble: 562 × 3
     id gp     perm
  <dbl> <chr> <dbl>
1   214 tr        0
2  4098 ctl       0
# ℹ 560 more rows
…
 The ATET (0.1886) is close to the one obtained previously using the algorithm based on stratas (0.1769).

Several packages have implemented the matching techniques previously described and some more advanced methods. We’ll describe here the MatchIt package. The MatchIt::matchit function performs the matching, with a formula-data interface. It has numerous extra arguments, we set here the replace argument to TRUE, so that one observation in the control group can match several observations in the treatment group. 

library(MatchIt)
ftusc2 <- update(ftusc, group ~ .)
mtch <- matchit(ftusc2, tuscany, replace = TRUE)

The "nearest" method is used (the default) and the number of matched observations is 427 (as previously), the 281 treated observations and 146 observations of the control group. A match.data function is provided in order to extract the data frame restricted to the treated observations and the subset of observations of the control group that match.

mtch %>% match.data %>% print(n = 2)

# A tibble: 427 × 31
     id   age sex    marital children feduc fbluecol  femp  educ
  <dbl> <dbl> <fct>  <fct>      <dbl> <dbl>    <dbl> <dbl> <dbl>
1  4862    32 female married        0     5        0     1    18
2  3756    33 female single         0     5        0     0    13
# ℹ 425 more rows
# ℹ 22 more variables: pvoto <dbl>, training <dbl>, dist <dbl>,
#   nyu <dbl>, hour <dbl>, wage <dbl>, hwage <dbl>, contact <dbl>,
#   region <fct>, city <fct>, group <fct>, sector <fct>,
#   occup <fct>, empstat <fct>, contract <fct>, loc <fct>,
#   outcome <fct>, perm <dbl>, dist2 <dbl>, livselfemp <I<int>>,
#   distance <dbl>, weights <dbl>
…
\[
\sum_{t = 1} ^ {T_0} \left(y_{1t} - \sum_{n = 2} ^ {N + 1} w_n(v)
y_{nt}\right) ^ 2
\tag{8.9}\]

Abadie (2021) discusses in length different choices for covariates’ weights \(v\). The synthetic control method is implemented in R in two packages: Synth (Abadie, Diamond, and Hainmueller 2011) and tidysynth (Dunford 2021). We’ll describe the use of the latter as it is written in the tidyverse style.

library(tidysynth)

The data set used is called basque_country. It is just the basque data set shipped with the Synth package, with a few modifications.

basque_country %>% print(n = 2)

# A tibble: 731 × 16
     id region  year gdpcap agriculture energy industry construction
  <dbl> <chr>  <dbl>  <dbl>       <dbl>  <dbl>    <dbl>        <dbl>
1     2 Andal…  1955   1.69          NA     NA       NA           NA
2     2 Andal…  1956   1.76          NA     NA       NA           NA
# ℹ 729 more rows
# ℹ 8 more variables: services <dbl>, administration <dbl>,
#   illit_educ <dbl>, prim_educ <dbl>, medium_educ <dbl>,
#   high_educ <dbl>, popdens <dbl>, invest <dbl>

It is a panel for 17 Spanish regions for 43 years (from 1955 to 1993). The first function to use is synthetic_control which defines the outcome, the unit and the time variables, the treated unit and the treatment period. In this study, the authors investigate the effect of terrorism in the Basque Country, which started in 1969, on GDP per capita: 

bc <- basque_country %>%
    synthetic_control(outcome = gdpcap,
                      unit = region,
                      time = year,
                      i_unit = "Basque",
                      i_time = 1969,
                      generate_placebo = TRUE)
bc

# A tibble: 34 × 6
  .id       .placebo .type    .outcome .original_data      .meta   
  <chr>        <dbl> <chr>    <list>   <list>              <list>  
1 Basque           0 treated  <tibble> <tibble [43 × 16]>  <tibble>
2 Basque           0 controls <tibble> <tibble [688 × 16]> <tibble>
3 Andalucia        1 treated  <tibble> <tibble [43 × 16]>  <tibble>
4 Andalucia        1 controls <tibble> <tibble [688 × 16]> <tibble>
5 Aragon           1 treated  <tibble> <tibble [43 × 16]>  <tibble>
# ℹ 29 more rows
…
The value of the covariate for the Basque Country may be very different from the mean of the values for the donor pool, but it should be close to the one of its synthetic control. It is particularly the case here for agriculture and popdens. To get the unit weights and only select those which are not almost zero, we can use: 

grab_unit_weights(bc) %>% filter(weight > 1E-05)

# A tibble: 2 × 2
  unit     weight
  <chr>     <dbl>
1 Cataluna  0.851
2 Madrid    0.149

As stated previously, the synthetic control of the Basque Country consists of 85% of Cataluna and 15% of Madrid. It is a common feature of this method that a small number of units in the donor pool are really used. To get the covariates weights: 

grab_predictor_weights(bc) %>% arrange(desc(weight))

# A tibble: 13 × 2
  variable       weight
  <chr>           <dbl>
1 popdens        0.339 
2 gdpcap         0.199 
3 industry       0.133 
4 administration 0.107 
5 agriculture    0.0937
# ℹ 8 more rows
…
Figure 8.8: Weights for the units and the predictors

The real series of GDP per capita for the Basque Country and its synthetic control are obtained using the grab_synthetic_control function. Figure 8.9 presents the two series and is obtained using the plot_trends function.6 

plot_trends(bc) + labs(title = NULL, y = "GDP per capita")

# A tibble: 43 × 3
  time_unit real_y synth_y
      <dbl>  <dbl>   <dbl>
1      1955   3.85    3.70
2      1956   3.95    3.85
3      1957   4.03    4.00
4      1958   4.02    4.03
5      1959   4.01    4.06
# ℹ 38 more rows
…
Figure 8.10: Difference of GDP per capita for the Basque Country and its synthetic control

The quality of the fit can be evaluated using grab_loss: 

bc %>% grab_loss

# A tibble: 17 × 4
  .id       .placebo variable_mspe control_unit_mspe
  <chr>        <dbl>         <dbl>             <dbl>
1 Basque           0       0.00886            0.249 
2 Andalucia        1       0.00850            0.0254
3 Aragon           1       0.00372            0.0313
4 Baleares         1       1.09               0.300 
5 Canarias         1       0.0594             0.121 
# ℹ 12 more rows
…
bc %>% grab_significance

# A tibble: 17 × 8
  unit_name              type    pre_mspe post_mspe mspe_ratio  rank
  <chr>                  <chr>      <dbl>     <dbl>      <dbl> <int>
1 Basque                 Treated  0.00821     0.493       60.1     1
2 Principado De Asturias Donor    0.0157      0.650       41.3     2
3 Andalucia              Donor    0.00741     0.205       27.7     3
4 Castilla-La Mancha     Donor    0.0162      0.206       12.7     4
5 Navarra                Donor    0.0224      0.224       10.0     5
# ℹ 12 more rows
# ℹ 2 more variables: fishers_exact_pvalue <dbl>, z_score <dbl>
…
